^D:\PROJETDEV\C++\LE PENDU\DRAWING.CPP
D:\PROGRAMME\MICROSOFT VISUAL STUDIO\2019\COMMUNITY\VC\TOOLS\MSVC\14.25.28610\INCLUDE\IOSTREAM
D:\PROGRAMME\MICROSOFT VISUAL STUDIO\2019\COMMUNITY\VC\TOOLS\MSVC\14.25.28610\INCLUDE\YVALS_CORE.H
D:\PROGRAMME\MICROSOFT VISUAL STUDIO\2019\COMMUNITY\VC\TOOLS\MSVC\14.25.28610\INCLUDE\VCRUNTIME.H
D:\PROGRAMME\MICROSOFT VISUAL STUDIO\2019\COMMUNITY\VC\TOOLS\MSVC\14.25.28610\INCLUDE\SAL.H
D:\PROGRAMME\MICROSOFT VISUAL STUDIO\2019\COMMUNITY\VC\TOOLS\MSVC\14.25.28610\INCLUDE\CONCURRENCYSAL.H
D:\PROGRAMME\MICROSOFT VISUAL STUDIO\2019\COMMUNITY\VC\TOOLS\MSVC\14.25.28610\INCLUDE\VADEFS.H
D:\PROGRAMME\MICROSOFT VISUAL STUDIO\2019\COMMUNITY\VC\TOOLS\MSVC\14.25.28610\INCLUDE\XKEYCHECK.H
D:\PROGRAMME\MICROSOFT VISUAL STUDIO\2019\COMMUNITY\VC\TOOLS\MSVC\14.25.28610\INCLUDE\ISTREAM
D:\PROGRAMME\MICROSOFT VISUAL STUDIO\2019\COMMUNITY\VC\TOOLS\MSVC\14.25.28610\INCLUDE\OSTREAM
D:\PROGRAMME\MICROSOFT VISUAL STUDIO\2019\COMMUNITY\VC\TOOLS\MSVC\14.25.28610\INCLUDE\IOS
D:\PROGRAMME\MICROSOFT VISUAL STUDIO\2019\COMMUNITY\VC\TOOLS\MSVC\14.25.28610\INCLUDE\XLOCNUM
D:\PROGRAMME\MICROSOFT VISUAL STUDIO\2019\COMMUNITY\VC\TOOLS\MSVC\14.25.28610\INCLUDE\CLIMITS
D:\PROGRAMME\MICROSOFT VISUAL STUDIO\2019\COMMUNITY\VC\TOOLS\MSVC\14.25.28610\INCLUDE\LIMITS.H
D:\PROGRAMME\MICROSOFT VISUAL STUDIO\2019\COMMUNITY\VC\TOOLS\MSVC\14.25.28610\INCLUDE\CMATH
D:\PROGRAMME\MICROSOFT VISUAL STUDIO\2019\COMMUNITY\VC\TOOLS\MSVC\14.25.28610\INCLUDE\YVALS.H
C:\PROGRAM FILES (X86)\WINDOWS KITS\10\INCLUDE\10.0.18362.0\UCRT\CRTDBG.H
C:\PROGRAM FILES (X86)\WINDOWS KITS\10\INCLUDE\10.0.18362.0\UCRT\CORECRT.H
D:\PROGRAMME\MICROSOFT VISUAL STUDIO\2019\COMMUNITY\VC\TOOLS\MSVC\14.25.28610\INCLUDE\VCRUNTIME_NEW_DEBUG.H
D:\PROGRAMME\MICROSOFT VISUAL STUDIO\2019\COMMUNITY\VC\TOOLS\MSVC\14.25.28610\INCLUDE\VCRUNTIME_NEW.H
D:\PROGRAMME\MICROSOFT VISUAL STUDIO\2019\COMMUNITY\VC\TOOLS\MSVC\14.25.28610\INCLUDE\CRTDEFS.H
D:\PROGRAMME\MICROSOFT VISUAL STUDIO\2019\COMMUNITY\VC\TOOLS\MSVC\14.25.28610\INCLUDE\USE_ANSI.H
D:\PROGRAMME\MICROSOFT VISUAL STUDIO\2019\COMMUNITY\VC\TOOLS\MSVC\14.25.28610\INCLUDE\CSTDLIB
C:\PROGRAM FILES (X86)\WINDOWS KITS\10\INCLUDE\10.0.18362.0\UCRT\MATH.H
C:\PROGRAM FILES (X86)\WINDOWS KITS\10\INCLUDE\10.0.18362.0\UCRT\CORECRT_MATH.H
C:\PROGRAM FILES (X86)\WINDOWS KITS\10\INCLUDE\10.0.18362.0\UCRT\STDLIB.H
C:\PROGRAM FILES (X86)\WINDOWS KITS\10\INCLUDE\10.0.18362.0\UCRT\CORECRT_MALLOC.H
C:\PROGRAM FILES (X86)\WINDOWS KITS\10\INCLUDE\10.0.18362.0\UCRT\CORECRT_SEARCH.H
C:\PROGRAM FILES (X86)\WINDOWS KITS\10\INCLUDE\10.0.18362.0\UCRT\STDDEF.H
C:\PROGRAM FILES (X86)\WINDOWS KITS\10\INCLUDE\10.0.18362.0\UCRT\CORECRT_WSTDLIB.H
D:\PROGRAMME\MICROSOFT VISUAL STUDIO\2019\COMMUNITY\VC\TOOLS\MSVC\14.25.28610\INCLUDE\XTR1COMMON
D:\PROGRAMME\MICROSOFT VISUAL STUDIO\2019\COMMUNITY\VC\TOOLS\MSVC\14.25.28610\INCLUDE\CSTDIO
C:\PROGRAM FILES (X86)\WINDOWS KITS\10\INCLUDE\10.0.18362.0\UCRT\STDIO.H
C:\PROGRAM FILES (X86)\WINDOWS KITS\10\INCLUDE\10.0.18362.0\UCRT\CORECRT_WSTDIO.H
C:\PROGRAM FILES (X86)\WINDOWS KITS\10\INCLUDE\10.0.18362.0\UCRT\CORECRT_STDIO_CONFIG.H
D:\PROGRAMME\MICROSOFT VISUAL STUDIO\2019\COMMUNITY\VC\TOOLS\MSVC\14.25.28610\INCLUDE\STREAMBUF
D:\PROGRAMME\MICROSOFT VISUAL STUDIO\2019\COMMUNITY\VC\TOOLS\MSVC\14.25.28610\INCLUDE\XIOSBASE
C:\PROGRAM FILES (X86)\WINDOWS KITS\10\INCLUDE\10.0.18362.0\UCRT\SHARE.H
C:\PROGRAM FILES (X86)\WINDOWS KITS\10\INCLUDE\10.0.18362.0\UCRT\CORECRT_SHARE.H
D:\PROGRAMME\MICROSOFT VISUAL STUDIO\2019\COMMUNITY\VC\TOOLS\MSVC\14.25.28610\INCLUDE\SYSTEM_ERROR
D:\PROGRAMME\MICROSOFT VISUAL STUDIO\2019\COMMUNITY\VC\TOOLS\MSVC\14.25.28610\INCLUDE\CERRNO
C:\PROGRAM FILES (X86)\WINDOWS KITS\10\INCLUDE\10.0.18362.0\UCRT\ERRNO.H
D:\PROGRAMME\MICROSOFT VISUAL STUDIO\2019\COMMUNITY\VC\TOOLS\MSVC\14.25.28610\INCLUDE\STDEXCEPT
D:\PROGRAMME\MICROSOFT VISUAL STUDIO\2019\COMMUNITY\VC\TOOLS\MSVC\14.25.28610\INCLUDE\EXCEPTION
D:\PROGRAMME\MICROSOFT VISUAL STUDIO\2019\COMMUNITY\VC\TOOLS\MSVC\14.25.28610\INCLUDE\TYPE_TRAITS
D:\PROGRAMME\MICROSOFT VISUAL STUDIO\2019\COMMUNITY\VC\TOOLS\MSVC\14.25.28610\INCLUDE\XSTDDEF
D:\PROGRAMME\MICROSOFT VISUAL STUDIO\2019\COMMUNITY\VC\TOOLS\MSVC\14.25.28610\INCLUDE\CSTDDEF
D:\PROGRAMME\MICROSOFT VISUAL STUDIO\2019\COMMUNITY\VC\TOOLS\MSVC\14.25.28610\INCLUDE\INITIALIZER_LIST
C:\PROGRAM FILES (X86)\WINDOWS KITS\10\INCLUDE\10.0.18362.0\UCRT\MALLOC.H
D:\PROGRAMME\MICROSOFT VISUAL STUDIO\2019\COMMUNITY\VC\TOOLS\MSVC\14.25.28610\INCLUDE\VCRUNTIME_EXCEPTION.H
D:\PROGRAMME\MICROSOFT VISUAL STUDIO\2019\COMMUNITY\VC\TOOLS\MSVC\14.25.28610\INCLUDE\EH.H
C:\PROGRAM FILES (X86)\WINDOWS KITS\10\INCLUDE\10.0.18362.0\UCRT\CORECRT_TERMINATE.H
D:\PROGRAMME\MICROSOFT VISUAL STUDIO\2019\COMMUNITY\VC\TOOLS\MSVC\14.25.28610\INCLUDE\XSTRING
D:\PROGRAMME\MICROSOFT VISUAL STUDIO\2019\COMMUNITY\VC\TOOLS\MSVC\14.25.28610\INCLUDE\IOSFWD
D:\PROGRAMME\MICROSOFT VISUAL STUDIO\2019\COMMUNITY\VC\TOOLS\MSVC\14.25.28610\INCLUDE\CSTRING
C:\PROGRAM FILES (X86)\WINDOWS KITS\10\INCLUDE\10.0.18362.0\UCRT\STRING.H
C:\PROGRAM FILES (X86)\WINDOWS KITS\10\INCLUDE\10.0.18362.0\UCRT\CORECRT_MEMORY.H
C:\PROGRAM FILES (X86)\WINDOWS KITS\10\INCLUDE\10.0.18362.0\UCRT\CORECRT_MEMCPY_S.H
D:\PROGRAMME\MICROSOFT VISUAL STUDIO\2019\COMMUNITY\VC\TOOLS\MSVC\14.25.28610\INCLUDE\VCRUNTIME_STRING.H
C:\PROGRAM FILES (X86)\WINDOWS KITS\10\INCLUDE\10.0.18362.0\UCRT\CORECRT_WSTRING.H
D:\PROGRAMME\MICROSOFT VISUAL STUDIO\2019\COMMUNITY\VC\TOOLS\MSVC\14.25.28610\INCLUDE\CWCHAR
C:\PROGRAM FILES (X86)\WINDOWS KITS\10\INCLUDE\10.0.18362.0\UCRT\WCHAR.H
C:\PROGRAM FILES (X86)\WINDOWS KITS\10\INCLUDE\10.0.18362.0\UCRT\CORECRT_WCONIO.H
C:\PROGRAM FILES (X86)\WINDOWS KITS\10\INCLUDE\10.0.18362.0\UCRT\CORECRT_WCTYPE.H
C:\PROGRAM FILES (X86)\WINDOWS KITS\10\INCLUDE\10.0.18362.0\UCRT\CORECRT_WDIRECT.H
C:\PROGRAM FILES (X86)\WINDOWS KITS\10\INCLUDE\10.0.18362.0\UCRT\CORECRT_WIO.H
C:\PROGRAM FILES (X86)\WINDOWS KITS\10\INCLUDE\10.0.18362.0\UCRT\CORECRT_WPROCESS.H
C:\PROGRAM FILES (X86)\WINDOWS KITS\10\INCLUDE\10.0.18362.0\UCRT\CORECRT_WTIME.H
C:\PROGRAM FILES (X86)\WINDOWS KITS\10\INCLUDE\10.0.18362.0\UCRT\SYS\STAT.H
C:\PROGRAM FILES (X86)\WINDOWS KITS\10\INCLUDE\10.0.18362.0\UCRT\SYS\TYPES.H
D:\PROGRAMME\MICROSOFT VISUAL STUDIO\2019\COMMUNITY\VC\TOOLS\MSVC\14.25.28610\INCLUDE\XMEMORY
D:\PROGRAMME\MICROSOFT VISUAL STUDIO\2019\COMMUNITY\VC\TOOLS\MSVC\14.25.28610\INCLUDE\CSTDINT
D:\PROGRAMME\MICROSOFT VISUAL STUDIO\2019\COMMUNITY\VC\TOOLS\MSVC\14.25.28610\INCLUDE\STDINT.H
D:\PROGRAMME\MICROSOFT VISUAL STUDIO\2019\COMMUNITY\VC\TOOLS\MSVC\14.25.28610\INCLUDE\LIMITS
D:\PROGRAMME\MICROSOFT VISUAL STUDIO\2019\COMMUNITY\VC\TOOLS\MSVC\14.25.28610\INCLUDE\CFLOAT
C:\PROGRAM FILES (X86)\WINDOWS KITS\10\INCLUDE\10.0.18362.0\UCRT\FLOAT.H
D:\PROGRAMME\MICROSOFT VISUAL STUDIO\2019\COMMUNITY\VC\TOOLS\MSVC\14.25.28610\INCLUDE\NEW
D:\PROGRAMME\MICROSOFT VISUAL STUDIO\2019\COMMUNITY\VC\TOOLS\MSVC\14.25.28610\INCLUDE\XATOMIC.H
D:\PROGRAMME\MICROSOFT VISUAL STUDIO\2019\COMMUNITY\VC\TOOLS\MSVC\14.25.28610\INCLUDE\INTRIN0.H
D:\PROGRAMME\MICROSOFT VISUAL STUDIO\2019\COMMUNITY\VC\TOOLS\MSVC\14.25.28610\INCLUDE\XUTILITY
D:\PROGRAMME\MICROSOFT VISUAL STUDIO\2019\COMMUNITY\VC\TOOLS\MSVC\14.25.28610\INCLUDE\UTILITY
D:\PROGRAMME\MICROSOFT VISUAL STUDIO\2019\COMMUNITY\VC\TOOLS\MSVC\14.25.28610\INCLUDE\XPOLYMORPHIC_ALLOCATOR.H
D:\PROGRAMME\MICROSOFT VISUAL STUDIO\2019\COMMUNITY\VC\TOOLS\MSVC\14.25.28610\INCLUDE\TUPLE
D:\PROGRAMME\MICROSOFT VISUAL STUDIO\2019\COMMUNITY\VC\TOOLS\MSVC\14.25.28610\INCLUDE\XCALL_ONCE.H
D:\PROGRAMME\MICROSOFT VISUAL STUDIO\2019\COMMUNITY\VC\TOOLS\MSVC\14.25.28610\INCLUDE\XERRC.H
D:\PROGRAMME\MICROSOFT VISUAL STUDIO\2019\COMMUNITY\VC\TOOLS\MSVC\14.25.28610\INCLUDE\XLOCALE
D:\PROGRAMME\MICROSOFT VISUAL STUDIO\2019\COMMUNITY\VC\TOOLS\MSVC\14.25.28610\INCLUDE\MEMORY
D:\PROGRAMME\MICROSOFT VISUAL STUDIO\2019\COMMUNITY\VC\TOOLS\MSVC\14.25.28610\INCLUDE\TYPEINFO
D:\PROGRAMME\MICROSOFT VISUAL STUDIO\2019\COMMUNITY\VC\TOOLS\MSVC\14.25.28610\INCLUDE\VCRUNTIME_TYPEINFO.H
D:\PROGRAMME\MICROSOFT VISUAL STUDIO\2019\COMMUNITY\VC\TOOLS\MSVC\14.25.28610\INCLUDE\XFACET
D:\PROGRAMME\MICROSOFT VISUAL STUDIO\2019\COMMUNITY\VC\TOOLS\MSVC\14.25.28610\INCLUDE\XLOCINFO
D:\PROGRAMME\MICROSOFT VISUAL STUDIO\2019\COMMUNITY\VC\TOOLS\MSVC\14.25.28610\INCLUDE\XLOCINFO.H
C:\PROGRAM FILES (X86)\WINDOWS KITS\10\INCLUDE\10.0.18362.0\UCRT\CTYPE.H
C:\PROGRAM FILES (X86)\WINDOWS KITS\10\INCLUDE\10.0.18362.0\UCRT\LOCALE.H
D:\PROJETDEV\C++\LE PENDU\GAME.H
D:\PROGRAMME\MICROSOFT VISUAL STUDIO\2019\COMMUNITY\VC\TOOLS\MSVC\14.25.28610\INCLUDE\STRING
D:\PROGRAMME\MICROSOFT VISUAL STUDIO\2019\COMMUNITY\VC\TOOLS\MSVC\14.25.28610\INCLUDE\CCTYPE
^D:\PROJETDEV\C++\LE PENDU\GAME.CPP
D:\PROGRAMME\MICROSOFT VISUAL STUDIO\2019\COMMUNITY\VC\TOOLS\MSVC\14.25.28610\INCLUDE\IOSTREAM
D:\PROGRAMME\MICROSOFT VISUAL STUDIO\2019\COMMUNITY\VC\TOOLS\MSVC\14.25.28610\INCLUDE\YVALS_CORE.H
D:\PROGRAMME\MICROSOFT VISUAL STUDIO\2019\COMMUNITY\VC\TOOLS\MSVC\14.25.28610\INCLUDE\VCRUNTIME.H
D:\PROGRAMME\MICROSOFT VISUAL STUDIO\2019\COMMUNITY\VC\TOOLS\MSVC\14.25.28610\INCLUDE\SAL.H
D:\PROGRAMME\MICROSOFT VISUAL STUDIO\2019\COMMUNITY\VC\TOOLS\MSVC\14.25.28610\INCLUDE\CONCURRENCYSAL.H
D:\PROGRAMME\MICROSOFT VISUAL STUDIO\2019\COMMUNITY\VC\TOOLS\MSVC\14.25.28610\INCLUDE\VADEFS.H
D:\PROGRAMME\MICROSOFT VISUAL STUDIO\2019\COMMUNITY\VC\TOOLS\MSVC\14.25.28610\INCLUDE\XKEYCHECK.H
D:\PROGRAMME\MICROSOFT VISUAL STUDIO\2019\COMMUNITY\VC\TOOLS\MSVC\14.25.28610\INCLUDE\ISTREAM
D:\PROGRAMME\MICROSOFT VISUAL STUDIO\2019\COMMUNITY\VC\TOOLS\MSVC\14.25.28610\INCLUDE\OSTREAM
D:\PROGRAMME\MICROSOFT VISUAL STUDIO\2019\COMMUNITY\VC\TOOLS\MSVC\14.25.28610\INCLUDE\IOS
D:\PROGRAMME\MICROSOFT VISUAL STUDIO\2019\COMMUNITY\VC\TOOLS\MSVC\14.25.28610\INCLUDE\XLOCNUM
D:\PROGRAMME\MICROSOFT VISUAL STUDIO\2019\COMMUNITY\VC\TOOLS\MSVC\14.25.28610\INCLUDE\CLIMITS
D:\PROGRAMME\MICROSOFT VISUAL STUDIO\2019\COMMUNITY\VC\TOOLS\MSVC\14.25.28610\INCLUDE\LIMITS.H
D:\PROGRAMME\MICROSOFT VISUAL STUDIO\2019\COMMUNITY\VC\TOOLS\MSVC\14.25.28610\INCLUDE\CMATH
D:\PROGRAMME\MICROSOFT VISUAL STUDIO\2019\COMMUNITY\VC\TOOLS\MSVC\14.25.28610\INCLUDE\YVALS.H
C:\PROGRAM FILES (X86)\WINDOWS KITS\10\INCLUDE\10.0.18362.0\UCRT\CRTDBG.H
C:\PROGRAM FILES (X86)\WINDOWS KITS\10\INCLUDE\10.0.18362.0\UCRT\CORECRT.H
D:\PROGRAMME\MICROSOFT VISUAL STUDIO\2019\COMMUNITY\VC\TOOLS\MSVC\14.25.28610\INCLUDE\VCRUNTIME_NEW_DEBUG.H
D:\PROGRAMME\MICROSOFT VISUAL STUDIO\2019\COMMUNITY\VC\TOOLS\MSVC\14.25.28610\INCLUDE\VCRUNTIME_NEW.H
D:\PROGRAMME\MICROSOFT VISUAL STUDIO\2019\COMMUNITY\VC\TOOLS\MSVC\14.25.28610\INCLUDE\CRTDEFS.H
D:\PROGRAMME\MICROSOFT VISUAL STUDIO\2019\COMMUNITY\VC\TOOLS\MSVC\14.25.28610\INCLUDE\USE_ANSI.H
D:\PROGRAMME\MICROSOFT VISUAL STUDIO\2019\COMMUNITY\VC\TOOLS\MSVC\14.25.28610\INCLUDE\CSTDLIB
C:\PROGRAM FILES (X86)\WINDOWS KITS\10\INCLUDE\10.0.18362.0\UCRT\MATH.H
C:\PROGRAM FILES (X86)\WINDOWS KITS\10\INCLUDE\10.0.18362.0\UCRT\CORECRT_MATH.H
C:\PROGRAM FILES (X86)\WINDOWS KITS\10\INCLUDE\10.0.18362.0\UCRT\STDLIB.H
C:\PROGRAM FILES (X86)\WINDOWS KITS\10\INCLUDE\10.0.18362.0\UCRT\CORECRT_MALLOC.H
C:\PROGRAM FILES (X86)\WINDOWS KITS\10\INCLUDE\10.0.18362.0\UCRT\CORECRT_SEARCH.H
C:\PROGRAM FILES (X86)\WINDOWS KITS\10\INCLUDE\10.0.18362.0\UCRT\STDDEF.H
C:\PROGRAM FILES (X86)\WINDOWS KITS\10\INCLUDE\10.0.18362.0\UCRT\CORECRT_WSTDLIB.H
D:\PROGRAMME\MICROSOFT VISUAL STUDIO\2019\COMMUNITY\VC\TOOLS\MSVC\14.25.28610\INCLUDE\XTR1COMMON
D:\PROGRAMME\MICROSOFT VISUAL STUDIO\2019\COMMUNITY\VC\TOOLS\MSVC\14.25.28610\INCLUDE\CSTDIO
C:\PROGRAM FILES (X86)\WINDOWS KITS\10\INCLUDE\10.0.18362.0\UCRT\STDIO.H
C:\PROGRAM FILES (X86)\WINDOWS KITS\10\INCLUDE\10.0.18362.0\UCRT\CORECRT_WSTDIO.H
C:\PROGRAM FILES (X86)\WINDOWS KITS\10\INCLUDE\10.0.18362.0\UCRT\CORECRT_STDIO_CONFIG.H
D:\PROGRAMME\MICROSOFT VISUAL STUDIO\2019\COMMUNITY\VC\TOOLS\MSVC\14.25.28610\INCLUDE\STREAMBUF
D:\PROGRAMME\MICROSOFT VISUAL STUDIO\2019\COMMUNITY\VC\TOOLS\MSVC\14.25.28610\INCLUDE\XIOSBASE
C:\PROGRAM FILES (X86)\WINDOWS KITS\10\INCLUDE\10.0.18362.0\UCRT\SHARE.H
C:\PROGRAM FILES (X86)\WINDOWS KITS\10\INCLUDE\10.0.18362.0\UCRT\CORECRT_SHARE.H
D:\PROGRAMME\MICROSOFT VISUAL STUDIO\2019\COMMUNITY\VC\TOOLS\MSVC\14.25.28610\INCLUDE\SYSTEM_ERROR
D:\PROGRAMME\MICROSOFT VISUAL STUDIO\2019\COMMUNITY\VC\TOOLS\MSVC\14.25.28610\INCLUDE\CERRNO
C:\PROGRAM FILES (X86)\WINDOWS KITS\10\INCLUDE\10.0.18362.0\UCRT\ERRNO.H
D:\PROGRAMME\MICROSOFT VISUAL STUDIO\2019\COMMUNITY\VC\TOOLS\MSVC\14.25.28610\INCLUDE\STDEXCEPT
D:\PROGRAMME\MICROSOFT VISUAL STUDIO\2019\COMMUNITY\VC\TOOLS\MSVC\14.25.28610\INCLUDE\EXCEPTION
D:\PROGRAMME\MICROSOFT VISUAL STUDIO\2019\COMMUNITY\VC\TOOLS\MSVC\14.25.28610\INCLUDE\TYPE_TRAITS
D:\PROGRAMME\MICROSOFT VISUAL STUDIO\2019\COMMUNITY\VC\TOOLS\MSVC\14.25.28610\INCLUDE\XSTDDEF
D:\PROGRAMME\MICROSOFT VISUAL STUDIO\2019\COMMUNITY\VC\TOOLS\MSVC\14.25.28610\INCLUDE\CSTDDEF
D:\PROGRAMME\MICROSOFT VISUAL STUDIO\2019\COMMUNITY\VC\TOOLS\MSVC\14.25.28610\INCLUDE\INITIALIZER_LIST
C:\PROGRAM FILES (X86)\WINDOWS KITS\10\INCLUDE\10.0.18362.0\UCRT\MALLOC.H
D:\PROGRAMME\MICROSOFT VISUAL STUDIO\2019\COMMUNITY\VC\TOOLS\MSVC\14.25.28610\INCLUDE\VCRUNTIME_EXCEPTION.H
D:\PROGRAMME\MICROSOFT VISUAL STUDIO\2019\COMMUNITY\VC\TOOLS\MSVC\14.25.28610\INCLUDE\EH.H
C:\PROGRAM FILES (X86)\WINDOWS KITS\10\INCLUDE\10.0.18362.0\UCRT\CORECRT_TERMINATE.H
D:\PROGRAMME\MICROSOFT VISUAL STUDIO\2019\COMMUNITY\VC\TOOLS\MSVC\14.25.28610\INCLUDE\XSTRING
D:\PROGRAMME\MICROSOFT VISUAL STUDIO\2019\COMMUNITY\VC\TOOLS\MSVC\14.25.28610\INCLUDE\IOSFWD
D:\PROGRAMME\MICROSOFT VISUAL STUDIO\2019\COMMUNITY\VC\TOOLS\MSVC\14.25.28610\INCLUDE\CSTRING
C:\PROGRAM FILES (X86)\WINDOWS KITS\10\INCLUDE\10.0.18362.0\UCRT\STRING.H
C:\PROGRAM FILES (X86)\WINDOWS KITS\10\INCLUDE\10.0.18362.0\UCRT\CORECRT_MEMORY.H
C:\PROGRAM FILES (X86)\WINDOWS KITS\10\INCLUDE\10.0.18362.0\UCRT\CORECRT_MEMCPY_S.H
D:\PROGRAMME\MICROSOFT VISUAL STUDIO\2019\COMMUNITY\VC\TOOLS\MSVC\14.25.28610\INCLUDE\VCRUNTIME_STRING.H
C:\PROGRAM FILES (X86)\WINDOWS KITS\10\INCLUDE\10.0.18362.0\UCRT\CORECRT_WSTRING.H
D:\PROGRAMME\MICROSOFT VISUAL STUDIO\2019\COMMUNITY\VC\TOOLS\MSVC\14.25.28610\INCLUDE\CWCHAR
C:\PROGRAM FILES (X86)\WINDOWS KITS\10\INCLUDE\10.0.18362.0\UCRT\WCHAR.H
C:\PROGRAM FILES (X86)\WINDOWS KITS\10\INCLUDE\10.0.18362.0\UCRT\CORECRT_WCONIO.H
C:\PROGRAM FILES (X86)\WINDOWS KITS\10\INCLUDE\10.0.18362.0\UCRT\CORECRT_WCTYPE.H
C:\PROGRAM FILES (X86)\WINDOWS KITS\10\INCLUDE\10.0.18362.0\UCRT\CORECRT_WDIRECT.H
C:\PROGRAM FILES (X86)\WINDOWS KITS\10\INCLUDE\10.0.18362.0\UCRT\CORECRT_WIO.H
C:\PROGRAM FILES (X86)\WINDOWS KITS\10\INCLUDE\10.0.18362.0\UCRT\CORECRT_WPROCESS.H
C:\PROGRAM FILES (X86)\WINDOWS KITS\10\INCLUDE\10.0.18362.0\UCRT\CORECRT_WTIME.H
C:\PROGRAM FILES (X86)\WINDOWS KITS\10\INCLUDE\10.0.18362.0\UCRT\SYS\STAT.H
C:\PROGRAM FILES (X86)\WINDOWS KITS\10\INCLUDE\10.0.18362.0\UCRT\SYS\TYPES.H
D:\PROGRAMME\MICROSOFT VISUAL STUDIO\2019\COMMUNITY\VC\TOOLS\MSVC\14.25.28610\INCLUDE\XMEMORY
D:\PROGRAMME\MICROSOFT VISUAL STUDIO\2019\COMMUNITY\VC\TOOLS\MSVC\14.25.28610\INCLUDE\CSTDINT
D:\PROGRAMME\MICROSOFT VISUAL STUDIO\2019\COMMUNITY\VC\TOOLS\MSVC\14.25.28610\INCLUDE\STDINT.H
D:\PROGRAMME\MICROSOFT VISUAL STUDIO\2019\COMMUNITY\VC\TOOLS\MSVC\14.25.28610\INCLUDE\LIMITS
D:\PROGRAMME\MICROSOFT VISUAL STUDIO\2019\COMMUNITY\VC\TOOLS\MSVC\14.25.28610\INCLUDE\CFLOAT
C:\PROGRAM FILES (X86)\WINDOWS KITS\10\INCLUDE\10.0.18362.0\UCRT\FLOAT.H
D:\PROGRAMME\MICROSOFT VISUAL STUDIO\2019\COMMUNITY\VC\TOOLS\MSVC\14.25.28610\INCLUDE\NEW
D:\PROGRAMME\MICROSOFT VISUAL STUDIO\2019\COMMUNITY\VC\TOOLS\MSVC\14.25.28610\INCLUDE\XATOMIC.H
D:\PROGRAMME\MICROSOFT VISUAL STUDIO\2019\COMMUNITY\VC\TOOLS\MSVC\14.25.28610\INCLUDE\INTRIN0.H
D:\PROGRAMME\MICROSOFT VISUAL STUDIO\2019\COMMUNITY\VC\TOOLS\MSVC\14.25.28610\INCLUDE\XUTILITY
D:\PROGRAMME\MICROSOFT VISUAL STUDIO\2019\COMMUNITY\VC\TOOLS\MSVC\14.25.28610\INCLUDE\UTILITY
D:\PROGRAMME\MICROSOFT VISUAL STUDIO\2019\COMMUNITY\VC\TOOLS\MSVC\14.25.28610\INCLUDE\XPOLYMORPHIC_ALLOCATOR.H
D:\PROGRAMME\MICROSOFT VISUAL STUDIO\2019\COMMUNITY\VC\TOOLS\MSVC\14.25.28610\INCLUDE\TUPLE
D:\PROGRAMME\MICROSOFT VISUAL STUDIO\2019\COMMUNITY\VC\TOOLS\MSVC\14.25.28610\INCLUDE\XCALL_ONCE.H
D:\PROGRAMME\MICROSOFT VISUAL STUDIO\2019\COMMUNITY\VC\TOOLS\MSVC\14.25.28610\INCLUDE\XERRC.H
D:\PROGRAMME\MICROSOFT VISUAL STUDIO\2019\COMMUNITY\VC\TOOLS\MSVC\14.25.28610\INCLUDE\XLOCALE
D:\PROGRAMME\MICROSOFT VISUAL STUDIO\2019\COMMUNITY\VC\TOOLS\MSVC\14.25.28610\INCLUDE\MEMORY
D:\PROGRAMME\MICROSOFT VISUAL STUDIO\2019\COMMUNITY\VC\TOOLS\MSVC\14.25.28610\INCLUDE\TYPEINFO
D:\PROGRAMME\MICROSOFT VISUAL STUDIO\2019\COMMUNITY\VC\TOOLS\MSVC\14.25.28610\INCLUDE\VCRUNTIME_TYPEINFO.H
D:\PROGRAMME\MICROSOFT VISUAL STUDIO\2019\COMMUNITY\VC\TOOLS\MSVC\14.25.28610\INCLUDE\XFACET
D:\PROGRAMME\MICROSOFT VISUAL STUDIO\2019\COMMUNITY\VC\TOOLS\MSVC\14.25.28610\INCLUDE\XLOCINFO
D:\PROGRAMME\MICROSOFT VISUAL STUDIO\2019\COMMUNITY\VC\TOOLS\MSVC\14.25.28610\INCLUDE\XLOCINFO.H
C:\PROGRAM FILES (X86)\WINDOWS KITS\10\INCLUDE\10.0.18362.0\UCRT\CTYPE.H
C:\PROGRAM FILES (X86)\WINDOWS KITS\10\INCLUDE\10.0.18362.0\UCRT\LOCALE.H
D:\PROGRAMME\MICROSOFT VISUAL STUDIO\2019\COMMUNITY\VC\TOOLS\MSVC\14.25.28610\INCLUDE\STRING
D:\PROGRAMME\MICROSOFT VISUAL STUDIO\2019\COMMUNITY\VC\TOOLS\MSVC\14.25.28610\INCLUDE\CCTYPE
D:\PROGRAMME\MICROSOFT VISUAL STUDIO\2019\COMMUNITY\VC\TOOLS\MSVC\14.25.28610\INCLUDE\STRING_VIEW
D:\PROGRAMME\MICROSOFT VISUAL STUDIO\2019\COMMUNITY\VC\TOOLS\MSVC\14.25.28610\INCLUDE\RANDOM
D:\PROGRAMME\MICROSOFT VISUAL STUDIO\2019\COMMUNITY\VC\TOOLS\MSVC\14.25.28610\INCLUDE\ALGORITHM
D:\PROGRAMME\MICROSOFT VISUAL STUDIO\2019\COMMUNITY\VC\TOOLS\MSVC\14.25.28610\INCLUDE\VECTOR
D:\PROJETDEV\C++\LE PENDU\DICTIONNARY.H
D:\PROGRAMME\MICROSOFT VISUAL STUDIO\2019\COMMUNITY\VC\TOOLS\MSVC\14.25.28610\INCLUDE\ARRAY
D:\PROGRAMME\MICROSOFT VISUAL STUDIO\2019\COMMUNITY\VC\TOOLS\MSVC\14.25.28610\INCLUDE\ITERATOR
D:\PROJETDEV\C++\LE PENDU\GAME.H
D:\PROJETDEV\C++\LE PENDU\MENU.H
D:\PROJETDEV\C++\LE PENDU\DRAWING.H
^D:\PROJETDEV\C++\LE PENDU\LE PENDU.CPP
D:\PROGRAMME\MICROSOFT VISUAL STUDIO\2019\COMMUNITY\VC\TOOLS\MSVC\14.25.28610\INCLUDE\IOSTREAM
D:\PROGRAMME\MICROSOFT VISUAL STUDIO\2019\COMMUNITY\VC\TOOLS\MSVC\14.25.28610\INCLUDE\YVALS_CORE.H
D:\PROGRAMME\MICROSOFT VISUAL STUDIO\2019\COMMUNITY\VC\TOOLS\MSVC\14.25.28610\INCLUDE\VCRUNTIME.H
D:\PROGRAMME\MICROSOFT VISUAL STUDIO\2019\COMMUNITY\VC\TOOLS\MSVC\14.25.28610\INCLUDE\SAL.H
D:\PROGRAMME\MICROSOFT VISUAL STUDIO\2019\COMMUNITY\VC\TOOLS\MSVC\14.25.28610\INCLUDE\CONCURRENCYSAL.H
D:\PROGRAMME\MICROSOFT VISUAL STUDIO\2019\COMMUNITY\VC\TOOLS\MSVC\14.25.28610\INCLUDE\VADEFS.H
D:\PROGRAMME\MICROSOFT VISUAL STUDIO\2019\COMMUNITY\VC\TOOLS\MSVC\14.25.28610\INCLUDE\XKEYCHECK.H
D:\PROGRAMME\MICROSOFT VISUAL STUDIO\2019\COMMUNITY\VC\TOOLS\MSVC\14.25.28610\INCLUDE\ISTREAM
D:\PROGRAMME\MICROSOFT VISUAL STUDIO\2019\COMMUNITY\VC\TOOLS\MSVC\14.25.28610\INCLUDE\OSTREAM
D:\PROGRAMME\MICROSOFT VISUAL STUDIO\2019\COMMUNITY\VC\TOOLS\MSVC\14.25.28610\INCLUDE\IOS
D:\PROGRAMME\MICROSOFT VISUAL STUDIO\2019\COMMUNITY\VC\TOOLS\MSVC\14.25.28610\INCLUDE\XLOCNUM
D:\PROGRAMME\MICROSOFT VISUAL STUDIO\2019\COMMUNITY\VC\TOOLS\MSVC\14.25.28610\INCLUDE\CLIMITS
D:\PROGRAMME\MICROSOFT VISUAL STUDIO\2019\COMMUNITY\VC\TOOLS\MSVC\14.25.28610\INCLUDE\LIMITS.H
D:\PROGRAMME\MICROSOFT VISUAL STUDIO\2019\COMMUNITY\VC\TOOLS\MSVC\14.25.28610\INCLUDE\CMATH
D:\PROGRAMME\MICROSOFT VISUAL STUDIO\2019\COMMUNITY\VC\TOOLS\MSVC\14.25.28610\INCLUDE\YVALS.H
C:\PROGRAM FILES (X86)\WINDOWS KITS\10\INCLUDE\10.0.18362.0\UCRT\CRTDBG.H
C:\PROGRAM FILES (X86)\WINDOWS KITS\10\INCLUDE\10.0.18362.0\UCRT\CORECRT.H
D:\PROGRAMME\MICROSOFT VISUAL STUDIO\2019\COMMUNITY\VC\TOOLS\MSVC\14.25.28610\INCLUDE\VCRUNTIME_NEW_DEBUG.H
D:\PROGRAMME\MICROSOFT VISUAL STUDIO\2019\COMMUNITY\VC\TOOLS\MSVC\14.25.28610\INCLUDE\VCRUNTIME_NEW.H
D:\PROGRAMME\MICROSOFT VISUAL STUDIO\2019\COMMUNITY\VC\TOOLS\MSVC\14.25.28610\INCLUDE\CRTDEFS.H
D:\PROGRAMME\MICROSOFT VISUAL STUDIO\2019\COMMUNITY\VC\TOOLS\MSVC\14.25.28610\INCLUDE\USE_ANSI.H
D:\PROGRAMME\MICROSOFT VISUAL STUDIO\2019\COMMUNITY\VC\TOOLS\MSVC\14.25.28610\INCLUDE\CSTDLIB
C:\PROGRAM FILES (X86)\WINDOWS KITS\10\INCLUDE\10.0.18362.0\UCRT\MATH.H
C:\PROGRAM FILES (X86)\WINDOWS KITS\10\INCLUDE\10.0.18362.0\UCRT\CORECRT_MATH.H
C:\PROGRAM FILES (X86)\WINDOWS KITS\10\INCLUDE\10.0.18362.0\UCRT\STDLIB.H
C:\PROGRAM FILES (X86)\WINDOWS KITS\10\INCLUDE\10.0.18362.0\UCRT\CORECRT_MALLOC.H
C:\PROGRAM FILES (X86)\WINDOWS KITS\10\INCLUDE\10.0.18362.0\UCRT\CORECRT_SEARCH.H
C:\PROGRAM FILES (X86)\WINDOWS KITS\10\INCLUDE\10.0.18362.0\UCRT\STDDEF.H
C:\PROGRAM FILES (X86)\WINDOWS KITS\10\INCLUDE\10.0.18362.0\UCRT\CORECRT_WSTDLIB.H
D:\PROGRAMME\MICROSOFT VISUAL STUDIO\2019\COMMUNITY\VC\TOOLS\MSVC\14.25.28610\INCLUDE\XTR1COMMON
D:\PROGRAMME\MICROSOFT VISUAL STUDIO\2019\COMMUNITY\VC\TOOLS\MSVC\14.25.28610\INCLUDE\CSTDIO
C:\PROGRAM FILES (X86)\WINDOWS KITS\10\INCLUDE\10.0.18362.0\UCRT\STDIO.H
C:\PROGRAM FILES (X86)\WINDOWS KITS\10\INCLUDE\10.0.18362.0\UCRT\CORECRT_WSTDIO.H
C:\PROGRAM FILES (X86)\WINDOWS KITS\10\INCLUDE\10.0.18362.0\UCRT\CORECRT_STDIO_CONFIG.H
D:\PROGRAMME\MICROSOFT VISUAL STUDIO\2019\COMMUNITY\VC\TOOLS\MSVC\14.25.28610\INCLUDE\STREAMBUF
D:\PROGRAMME\MICROSOFT VISUAL STUDIO\2019\COMMUNITY\VC\TOOLS\MSVC\14.25.28610\INCLUDE\XIOSBASE
C:\PROGRAM FILES (X86)\WINDOWS KITS\10\INCLUDE\10.0.18362.0\UCRT\SHARE.H
C:\PROGRAM FILES (X86)\WINDOWS KITS\10\INCLUDE\10.0.18362.0\UCRT\CORECRT_SHARE.H
D:\PROGRAMME\MICROSOFT VISUAL STUDIO\2019\COMMUNITY\VC\TOOLS\MSVC\14.25.28610\INCLUDE\SYSTEM_ERROR
D:\PROGRAMME\MICROSOFT VISUAL STUDIO\2019\COMMUNITY\VC\TOOLS\MSVC\14.25.28610\INCLUDE\CERRNO
C:\PROGRAM FILES (X86)\WINDOWS KITS\10\INCLUDE\10.0.18362.0\UCRT\ERRNO.H
D:\PROGRAMME\MICROSOFT VISUAL STUDIO\2019\COMMUNITY\VC\TOOLS\MSVC\14.25.28610\INCLUDE\STDEXCEPT
D:\PROGRAMME\MICROSOFT VISUAL STUDIO\2019\COMMUNITY\VC\TOOLS\MSVC\14.25.28610\INCLUDE\EXCEPTION
D:\PROGRAMME\MICROSOFT VISUAL STUDIO\2019\COMMUNITY\VC\TOOLS\MSVC\14.25.28610\INCLUDE\TYPE_TRAITS
D:\PROGRAMME\MICROSOFT VISUAL STUDIO\2019\COMMUNITY\VC\TOOLS\MSVC\14.25.28610\INCLUDE\XSTDDEF
D:\PROGRAMME\MICROSOFT VISUAL STUDIO\2019\COMMUNITY\VC\TOOLS\MSVC\14.25.28610\INCLUDE\CSTDDEF
D:\PROGRAMME\MICROSOFT VISUAL STUDIO\2019\COMMUNITY\VC\TOOLS\MSVC\14.25.28610\INCLUDE\INITIALIZER_LIST
C:\PROGRAM FILES (X86)\WINDOWS KITS\10\INCLUDE\10.0.18362.0\UCRT\MALLOC.H
D:\PROGRAMME\MICROSOFT VISUAL STUDIO\2019\COMMUNITY\VC\TOOLS\MSVC\14.25.28610\INCLUDE\VCRUNTIME_EXCEPTION.H
D:\PROGRAMME\MICROSOFT VISUAL STUDIO\2019\COMMUNITY\VC\TOOLS\MSVC\14.25.28610\INCLUDE\EH.H
C:\PROGRAM FILES (X86)\WINDOWS KITS\10\INCLUDE\10.0.18362.0\UCRT\CORECRT_TERMINATE.H
D:\PROGRAMME\MICROSOFT VISUAL STUDIO\2019\COMMUNITY\VC\TOOLS\MSVC\14.25.28610\INCLUDE\XSTRING
D:\PROGRAMME\MICROSOFT VISUAL STUDIO\2019\COMMUNITY\VC\TOOLS\MSVC\14.25.28610\INCLUDE\IOSFWD
D:\PROGRAMME\MICROSOFT VISUAL STUDIO\2019\COMMUNITY\VC\TOOLS\MSVC\14.25.28610\INCLUDE\CSTRING
C:\PROGRAM FILES (X86)\WINDOWS KITS\10\INCLUDE\10.0.18362.0\UCRT\STRING.H
C:\PROGRAM FILES (X86)\WINDOWS KITS\10\INCLUDE\10.0.18362.0\UCRT\CORECRT_MEMORY.H
C:\PROGRAM FILES (X86)\WINDOWS KITS\10\INCLUDE\10.0.18362.0\UCRT\CORECRT_MEMCPY_S.H
D:\PROGRAMME\MICROSOFT VISUAL STUDIO\2019\COMMUNITY\VC\TOOLS\MSVC\14.25.28610\INCLUDE\VCRUNTIME_STRING.H
C:\PROGRAM FILES (X86)\WINDOWS KITS\10\INCLUDE\10.0.18362.0\UCRT\CORECRT_WSTRING.H
D:\PROGRAMME\MICROSOFT VISUAL STUDIO\2019\COMMUNITY\VC\TOOLS\MSVC\14.25.28610\INCLUDE\CWCHAR
C:\PROGRAM FILES (X86)\WINDOWS KITS\10\INCLUDE\10.0.18362.0\UCRT\WCHAR.H
C:\PROGRAM FILES (X86)\WINDOWS KITS\10\INCLUDE\10.0.18362.0\UCRT\CORECRT_WCONIO.H
C:\PROGRAM FILES (X86)\WINDOWS KITS\10\INCLUDE\10.0.18362.0\UCRT\CORECRT_WCTYPE.H
C:\PROGRAM FILES (X86)\WINDOWS KITS\10\INCLUDE\10.0.18362.0\UCRT\CORECRT_WDIRECT.H
C:\PROGRAM FILES (X86)\WINDOWS KITS\10\INCLUDE\10.0.18362.0\UCRT\CORECRT_WIO.H
C:\PROGRAM FILES (X86)\WINDOWS KITS\10\INCLUDE\10.0.18362.0\UCRT\CORECRT_WPROCESS.H
C:\PROGRAM FILES (X86)\WINDOWS KITS\10\INCLUDE\10.0.18362.0\UCRT\CORECRT_WTIME.H
C:\PROGRAM FILES (X86)\WINDOWS KITS\10\INCLUDE\10.0.18362.0\UCRT\SYS\STAT.H
C:\PROGRAM FILES (X86)\WINDOWS KITS\10\INCLUDE\10.0.18362.0\UCRT\SYS\TYPES.H
D:\PROGRAMME\MICROSOFT VISUAL STUDIO\2019\COMMUNITY\VC\TOOLS\MSVC\14.25.28610\INCLUDE\XMEMORY
D:\PROGRAMME\MICROSOFT VISUAL STUDIO\2019\COMMUNITY\VC\TOOLS\MSVC\14.25.28610\INCLUDE\CSTDINT
D:\PROGRAMME\MICROSOFT VISUAL STUDIO\2019\COMMUNITY\VC\TOOLS\MSVC\14.25.28610\INCLUDE\STDINT.H
D:\PROGRAMME\MICROSOFT VISUAL STUDIO\2019\COMMUNITY\VC\TOOLS\MSVC\14.25.28610\INCLUDE\LIMITS
D:\PROGRAMME\MICROSOFT VISUAL STUDIO\2019\COMMUNITY\VC\TOOLS\MSVC\14.25.28610\INCLUDE\CFLOAT
C:\PROGRAM FILES (X86)\WINDOWS KITS\10\INCLUDE\10.0.18362.0\UCRT\FLOAT.H
D:\PROGRAMME\MICROSOFT VISUAL STUDIO\2019\COMMUNITY\VC\TOOLS\MSVC\14.25.28610\INCLUDE\NEW
D:\PROGRAMME\MICROSOFT VISUAL STUDIO\2019\COMMUNITY\VC\TOOLS\MSVC\14.25.28610\INCLUDE\XATOMIC.H
D:\PROGRAMME\MICROSOFT VISUAL STUDIO\2019\COMMUNITY\VC\TOOLS\MSVC\14.25.28610\INCLUDE\INTRIN0.H
D:\PROGRAMME\MICROSOFT VISUAL STUDIO\2019\COMMUNITY\VC\TOOLS\MSVC\14.25.28610\INCLUDE\XUTILITY
D:\PROGRAMME\MICROSOFT VISUAL STUDIO\2019\COMMUNITY\VC\TOOLS\MSVC\14.25.28610\INCLUDE\UTILITY
D:\PROGRAMME\MICROSOFT VISUAL STUDIO\2019\COMMUNITY\VC\TOOLS\MSVC\14.25.28610\INCLUDE\XPOLYMORPHIC_ALLOCATOR.H
D:\PROGRAMME\MICROSOFT VISUAL STUDIO\2019\COMMUNITY\VC\TOOLS\MSVC\14.25.28610\INCLUDE\TUPLE
D:\PROGRAMME\MICROSOFT VISUAL STUDIO\2019\COMMUNITY\VC\TOOLS\MSVC\14.25.28610\INCLUDE\XCALL_ONCE.H
D:\PROGRAMME\MICROSOFT VISUAL STUDIO\2019\COMMUNITY\VC\TOOLS\MSVC\14.25.28610\INCLUDE\XERRC.H
D:\PROGRAMME\MICROSOFT VISUAL STUDIO\2019\COMMUNITY\VC\TOOLS\MSVC\14.25.28610\INCLUDE\XLOCALE
D:\PROGRAMME\MICROSOFT VISUAL STUDIO\2019\COMMUNITY\VC\TOOLS\MSVC\14.25.28610\INCLUDE\MEMORY
D:\PROGRAMME\MICROSOFT VISUAL STUDIO\2019\COMMUNITY\VC\TOOLS\MSVC\14.25.28610\INCLUDE\TYPEINFO
D:\PROGRAMME\MICROSOFT VISUAL STUDIO\2019\COMMUNITY\VC\TOOLS\MSVC\14.25.28610\INCLUDE\VCRUNTIME_TYPEINFO.H
D:\PROGRAMME\MICROSOFT VISUAL STUDIO\2019\COMMUNITY\VC\TOOLS\MSVC\14.25.28610\INCLUDE\XFACET
D:\PROGRAMME\MICROSOFT VISUAL STUDIO\2019\COMMUNITY\VC\TOOLS\MSVC\14.25.28610\INCLUDE\XLOCINFO
D:\PROGRAMME\MICROSOFT VISUAL STUDIO\2019\COMMUNITY\VC\TOOLS\MSVC\14.25.28610\INCLUDE\XLOCINFO.H
C:\PROGRAM FILES (X86)\WINDOWS KITS\10\INCLUDE\10.0.18362.0\UCRT\CTYPE.H
C:\PROGRAM FILES (X86)\WINDOWS KITS\10\INCLUDE\10.0.18362.0\UCRT\LOCALE.H
C:\PROGRAM FILES (X86)\WINDOWS KITS\10\INCLUDE\10.0.18362.0\UM\WINDOWS.H
C:\PROGRAM FILES (X86)\WINDOWS KITS\10\INCLUDE\10.0.18362.0\SHARED\WINAPIFAMILY.H
C:\PROGRAM FILES (X86)\WINDOWS KITS\10\INCLUDE\10.0.18362.0\SHARED\WINPACKAGEFAMILY.H
C:\PROGRAM FILES (X86)\WINDOWS KITS\10\INCLUDE\10.0.18362.0\SHARED\SDKDDKVER.H
D:\PROGRAMME\MICROSOFT VISUAL STUDIO\2019\COMMUNITY\VC\TOOLS\MSVC\14.25.28610\INCLUDE\EXCPT.H
D:\PROGRAMME\MICROSOFT VISUAL STUDIO\2019\COMMUNITY\VC\TOOLS\MSVC\14.25.28610\INCLUDE\STDARG.H
C:\PROGRAM FILES (X86)\WINDOWS KITS\10\INCLUDE\10.0.18362.0\SHARED\WINDEF.H
C:\PROGRAM FILES (X86)\WINDOWS KITS\10\INCLUDE\10.0.18362.0\SHARED\MINWINDEF.H
C:\PROGRAM FILES (X86)\WINDOWS KITS\10\INCLUDE\10.0.18362.0\SHARED\SPECSTRINGS.H
C:\PROGRAM FILES (X86)\WINDOWS KITS\10\INCLUDE\10.0.18362.0\SHARED\SPECSTRINGS_STRICT.H
C:\PROGRAM FILES (X86)\WINDOWS KITS\10\INCLUDE\10.0.18362.0\SHARED\SPECSTRINGS_UNDEF.H
C:\PROGRAM FILES (X86)\WINDOWS KITS\10\INCLUDE\10.0.18362.0\SHARED\DRIVERSPECS.H
C:\PROGRAM FILES (X86)\WINDOWS KITS\10\INCLUDE\10.0.18362.0\SHARED\SDV_DRIVERSPECS.H
C:\PROGRAM FILES (X86)\WINDOWS KITS\10\INCLUDE\10.0.18362.0\UM\WINNT.H
C:\PROGRAM FILES (X86)\WINDOWS KITS\10\INCLUDE\10.0.18362.0\SHARED\KERNELSPECS.H
C:\PROGRAM FILES (X86)\WINDOWS KITS\10\INCLUDE\10.0.18362.0\SHARED\BASETSD.H
C:\PROGRAM FILES (X86)\WINDOWS KITS\10\INCLUDE\10.0.18362.0\SHARED\GUIDDEF.H
C:\PROGRAM FILES (X86)\WINDOWS KITS\10\INCLUDE\10.0.18362.0\SHARED\PSHPACK4.H
C:\PROGRAM FILES (X86)\WINDOWS KITS\10\INCLUDE\10.0.18362.0\SHARED\POPPACK.H
C:\PROGRAM FILES (X86)\WINDOWS KITS\10\INCLUDE\10.0.18362.0\SHARED\PSHPACK2.H
C:\PROGRAM FILES (X86)\WINDOWS KITS\10\INCLUDE\10.0.18362.0\SHARED\PSHPACK8.H
C:\PROGRAM FILES (X86)\WINDOWS KITS\10\INCLUDE\10.0.18362.0\SHARED\PSHPACK1.H
C:\PROGRAM FILES (X86)\WINDOWS KITS\10\INCLUDE\10.0.18362.0\SHARED\APISET.H
C:\PROGRAM FILES (X86)\WINDOWS KITS\10\INCLUDE\10.0.18362.0\SHARED\KTMTYPES.H
C:\PROGRAM FILES (X86)\WINDOWS KITS\10\INCLUDE\10.0.18362.0\UM\WINBASE.H
C:\PROGRAM FILES (X86)\WINDOWS KITS\10\INCLUDE\10.0.18362.0\SHARED\APISETCCONV.H
C:\PROGRAM FILES (X86)\WINDOWS KITS\10\INCLUDE\10.0.18362.0\UM\MINWINBASE.H
C:\PROGRAM FILES (X86)\WINDOWS KITS\10\INCLUDE\10.0.18362.0\UM\APIQUERY2.H
C:\PROGRAM FILES (X86)\WINDOWS KITS\10\INCLUDE\10.0.18362.0\UM\PROCESSENV.H
C:\PROGRAM FILES (X86)\WINDOWS KITS\10\INCLUDE\10.0.18362.0\UM\FILEAPIFROMAPP.H
C:\PROGRAM FILES (X86)\WINDOWS KITS\10\INCLUDE\10.0.18362.0\UM\FILEAPI.H
C:\PROGRAM FILES (X86)\WINDOWS KITS\10\INCLUDE\10.0.18362.0\UM\DEBUGAPI.H
C:\PROGRAM FILES (X86)\WINDOWS KITS\10\INCLUDE\10.0.18362.0\UM\UTILAPISET.H
C:\PROGRAM FILES (X86)\WINDOWS KITS\10\INCLUDE\10.0.18362.0\UM\HANDLEAPI.H
C:\PROGRAM FILES (X86)\WINDOWS KITS\10\INCLUDE\10.0.18362.0\UM\ERRHANDLINGAPI.H
C:\PROGRAM FILES (X86)\WINDOWS KITS\10\INCLUDE\10.0.18362.0\UM\FIBERSAPI.H
C:\PROGRAM FILES (X86)\WINDOWS KITS\10\INCLUDE\10.0.18362.0\UM\NAMEDPIPEAPI.H
C:\PROGRAM FILES (X86)\WINDOWS KITS\10\INCLUDE\10.0.18362.0\UM\PROFILEAPI.H
C:\PROGRAM FILES (X86)\WINDOWS KITS\10\INCLUDE\10.0.18362.0\UM\HEAPAPI.H
C:\PROGRAM FILES (X86)\WINDOWS KITS\10\INCLUDE\10.0.18362.0\UM\IOAPISET.H
C:\PROGRAM FILES (X86)\WINDOWS KITS\10\INCLUDE\10.0.18362.0\UM\SYNCHAPI.H
C:\PROGRAM FILES (X86)\WINDOWS KITS\10\INCLUDE\10.0.18362.0\UM\INTERLOCKEDAPI.H
C:\PROGRAM FILES (X86)\WINDOWS KITS\10\INCLUDE\10.0.18362.0\UM\PROCESSTHREADSAPI.H
C:\PROGRAM FILES (X86)\WINDOWS KITS\10\INCLUDE\10.0.18362.0\UM\SYSINFOAPI.H
C:\PROGRAM FILES (X86)\WINDOWS KITS\10\INCLUDE\10.0.18362.0\UM\MEMORYAPI.H
C:\PROGRAM FILES (X86)\WINDOWS KITS\10\INCLUDE\10.0.18362.0\UM\ENCLAVEAPI.H
C:\PROGRAM FILES (X86)\WINDOWS KITS\10\INCLUDE\10.0.18362.0\UM\THREADPOOLLEGACYAPISET.H
C:\PROGRAM FILES (X86)\WINDOWS KITS\10\INCLUDE\10.0.18362.0\UM\THREADPOOLAPISET.H
C:\PROGRAM FILES (X86)\WINDOWS KITS\10\INCLUDE\10.0.18362.0\UM\JOBAPI.H
C:\PROGRAM FILES (X86)\WINDOWS KITS\10\INCLUDE\10.0.18362.0\UM\JOBAPI2.H
C:\PROGRAM FILES (X86)\WINDOWS KITS\10\INCLUDE\10.0.18362.0\UM\WOW64APISET.H
C:\PROGRAM FILES (X86)\WINDOWS KITS\10\INCLUDE\10.0.18362.0\UM\LIBLOADERAPI.H
C:\PROGRAM FILES (X86)\WINDOWS KITS\10\INCLUDE\10.0.18362.0\UM\SECURITYBASEAPI.H
C:\PROGRAM FILES (X86)\WINDOWS KITS\10\INCLUDE\10.0.18362.0\UM\NAMESPACEAPI.H
C:\PROGRAM FILES (X86)\WINDOWS KITS\10\INCLUDE\10.0.18362.0\UM\SYSTEMTOPOLOGYAPI.H
C:\PROGRAM FILES (X86)\WINDOWS KITS\10\INCLUDE\10.0.18362.0\UM\PROCESSTOPOLOGYAPI.H
C:\PROGRAM FILES (X86)\WINDOWS KITS\10\INCLUDE\10.0.18362.0\UM\SECURITYAPPCONTAINER.H
C:\PROGRAM FILES (X86)\WINDOWS KITS\10\INCLUDE\10.0.18362.0\UM\REALTIMEAPISET.H
C:\PROGRAM FILES (X86)\WINDOWS KITS\10\INCLUDE\10.0.18362.0\SHARED\WINERROR.H
C:\PROGRAM FILES (X86)\WINDOWS KITS\10\INCLUDE\10.0.18362.0\UM\TIMEZONEAPI.H
C:\PROGRAM FILES (X86)\WINDOWS KITS\10\INCLUDE\10.0.18362.0\UM\WINGDI.H
C:\PROGRAM FILES (X86)\WINDOWS KITS\10\INCLUDE\10.0.18362.0\UM\WINUSER.H
C:\PROGRAM FILES (X86)\WINDOWS KITS\10\INCLUDE\10.0.18362.0\SHARED\TVOUT.H
C:\PROGRAM FILES (X86)\WINDOWS KITS\10\INCLUDE\10.0.18362.0\UM\WINNLS.H
C:\PROGRAM FILES (X86)\WINDOWS KITS\10\INCLUDE\10.0.18362.0\UM\DATETIMEAPI.H
C:\PROGRAM FILES (X86)\WINDOWS KITS\10\INCLUDE\10.0.18362.0\UM\STRINGAPISET.H
C:\PROGRAM FILES (X86)\WINDOWS KITS\10\INCLUDE\10.0.18362.0\UM\WINCON.H
C:\PROGRAM FILES (X86)\WINDOWS KITS\10\INCLUDE\10.0.18362.0\UM\WINCONTYPES.H
C:\PROGRAM FILES (X86)\WINDOWS KITS\10\INCLUDE\10.0.18362.0\UM\CONSOLEAPI.H
C:\PROGRAM FILES (X86)\WINDOWS KITS\10\INCLUDE\10.0.18362.0\UM\CONSOLEAPI2.H
C:\PROGRAM FILES (X86)\WINDOWS KITS\10\INCLUDE\10.0.18362.0\UM\CONSOLEAPI3.H
C:\PROGRAM FILES (X86)\WINDOWS KITS\10\INCLUDE\10.0.18362.0\UM\WINVER.H
C:\PROGRAM FILES (X86)\WINDOWS KITS\10\INCLUDE\10.0.18362.0\UM\VERRSRC.H
C:\PROGRAM FILES (X86)\WINDOWS KITS\10\INCLUDE\10.0.18362.0\UM\WINREG.H
C:\PROGRAM FILES (X86)\WINDOWS KITS\10\INCLUDE\10.0.18362.0\UM\REASON.H
C:\PROGRAM FILES (X86)\WINDOWS KITS\10\INCLUDE\10.0.18362.0\UM\WINNETWK.H
C:\PROGRAM FILES (X86)\WINDOWS KITS\10\INCLUDE\10.0.18362.0\SHARED\WNNC.H
C:\PROGRAM FILES (X86)\WINDOWS KITS\10\INCLUDE\10.0.18362.0\SHARED\CDERR.H
C:\PROGRAM FILES (X86)\WINDOWS KITS\10\INCLUDE\10.0.18362.0\UM\DDE.H
C:\PROGRAM FILES (X86)\WINDOWS KITS\10\INCLUDE\10.0.18362.0\UM\DDEML.H
C:\PROGRAM FILES (X86)\WINDOWS KITS\10\INCLUDE\10.0.18362.0\UM\DLGS.H
C:\PROGRAM FILES (X86)\WINDOWS KITS\10\INCLUDE\10.0.18362.0\UM\LZEXPAND.H
C:\PROGRAM FILES (X86)\WINDOWS KITS\10\INCLUDE\10.0.18362.0\UM\MMSYSTEM.H
C:\PROGRAM FILES (X86)\WINDOWS KITS\10\INCLUDE\10.0.18362.0\UM\MMSYSCOM.H
C:\PROGRAM FILES (X86)\WINDOWS KITS\10\INCLUDE\10.0.18362.0\UM\MCIAPI.H
C:\PROGRAM FILES (X86)\WINDOWS KITS\10\INCLUDE\10.0.18362.0\UM\MMISCAPI.H
C:\PROGRAM FILES (X86)\WINDOWS KITS\10\INCLUDE\10.0.18362.0\UM\MMISCAPI2.H
C:\PROGRAM FILES (X86)\WINDOWS KITS\10\INCLUDE\10.0.18362.0\UM\PLAYSOUNDAPI.H
C:\PROGRAM FILES (X86)\WINDOWS KITS\10\INCLUDE\10.0.18362.0\UM\MMEAPI.H
C:\PROGRAM FILES (X86)\WINDOWS KITS\10\INCLUDE\10.0.18362.0\UM\TIMEAPI.H
C:\PROGRAM FILES (X86)\WINDOWS KITS\10\INCLUDE\10.0.18362.0\UM\JOYSTICKAPI.H
C:\PROGRAM FILES (X86)\WINDOWS KITS\10\INCLUDE\10.0.18362.0\UM\NB30.H
C:\PROGRAM FILES (X86)\WINDOWS KITS\10\INCLUDE\10.0.18362.0\SHARED\RPC.H
C:\PROGRAM FILES (X86)\WINDOWS KITS\10\INCLUDE\10.0.18362.0\SHARED\RPCDCE.H
C:\PROGRAM FILES (X86)\WINDOWS KITS\10\INCLUDE\10.0.18362.0\SHARED\RPCDCEP.H
C:\PROGRAM FILES (X86)\WINDOWS KITS\10\INCLUDE\10.0.18362.0\UM\RPCNSI.H
C:\PROGRAM FILES (X86)\WINDOWS KITS\10\INCLUDE\10.0.18362.0\SHARED\RPCNTERR.H
C:\PROGRAM FILES (X86)\WINDOWS KITS\10\INCLUDE\10.0.18362.0\SHARED\RPCASYNC.H
C:\PROGRAM FILES (X86)\WINDOWS KITS\10\INCLUDE\10.0.18362.0\UM\SHELLAPI.H
C:\PROGRAM FILES (X86)\WINDOWS KITS\10\INCLUDE\10.0.18362.0\UM\WINPERF.H
C:\PROGRAM FILES (X86)\WINDOWS KITS\10\INCLUDE\10.0.18362.0\UM\WINSOCK.H
C:\PROGRAM FILES (X86)\WINDOWS KITS\10\INCLUDE\10.0.18362.0\SHARED\INADDR.H
C:\PROGRAM FILES (X86)\WINDOWS KITS\10\INCLUDE\10.0.18362.0\UM\WINCRYPT.H
C:\PROGRAM FILES (X86)\WINDOWS KITS\10\INCLUDE\10.0.18362.0\SHARED\BCRYPT.H
C:\PROGRAM FILES (X86)\WINDOWS KITS\10\INCLUDE\10.0.18362.0\UM\NCRYPT.H
C:\PROGRAM FILES (X86)\WINDOWS KITS\10\INCLUDE\10.0.18362.0\UM\DPAPI.H
C:\PROGRAM FILES (X86)\WINDOWS KITS\10\INCLUDE\10.0.18362.0\UM\WINEFS.H
C:\PROGRAM FILES (X86)\WINDOWS KITS\10\INCLUDE\10.0.18362.0\UM\WINSCARD.H
C:\PROGRAM FILES (X86)\WINDOWS KITS\10\INCLUDE\10.0.18362.0\SHARED\WTYPES.H
C:\PROGRAM FILES (X86)\WINDOWS KITS\10\INCLUDE\10.0.18362.0\SHARED\RPCNDR.H
C:\PROGRAM FILES (X86)\WINDOWS KITS\10\INCLUDE\10.0.18362.0\UM\RPCNSIP.H
C:\PROGRAM FILES (X86)\WINDOWS KITS\10\INCLUDE\10.0.18362.0\SHARED\RPCSAL.H
C:\PROGRAM FILES (X86)\WINDOWS KITS\10\INCLUDE\10.0.18362.0\SHARED\WTYPESBASE.H
C:\PROGRAM FILES (X86)\WINDOWS KITS\10\INCLUDE\10.0.18362.0\UM\WINIOCTL.H
C:\PROGRAM FILES (X86)\WINDOWS KITS\10\INCLUDE\10.0.18362.0\SHARED\WINSMCRD.H
C:\PROGRAM FILES (X86)\WINDOWS KITS\10\INCLUDE\10.0.18362.0\UM\WINSPOOL.H
C:\PROGRAM FILES (X86)\WINDOWS KITS\10\INCLUDE\10.0.18362.0\UM\PRSHT.H
C:\PROGRAM FILES (X86)\WINDOWS KITS\10\INCLUDE\10.0.18362.0\UM\OLE2.H
C:\PROGRAM FILES (X86)\WINDOWS KITS\10\INCLUDE\10.0.18362.0\UM\OBJBASE.H
C:\PROGRAM FILES (X86)\WINDOWS KITS\10\INCLUDE\10.0.18362.0\UM\COMBASEAPI.H
C:\PROGRAM FILES (X86)\WINDOWS KITS\10\INCLUDE\10.0.18362.0\UM\UNKNWNBASE.H
C:\PROGRAM FILES (X86)\WINDOWS KITS\10\INCLUDE\10.0.18362.0\UM\OBJIDLBASE.H
C:\PROGRAM FILES (X86)\WINDOWS KITS\10\INCLUDE\10.0.18362.0\UM\CGUID.H
C:\PROGRAM FILES (X86)\WINDOWS KITS\10\INCLUDE\10.0.18362.0\UM\COML2API.H
C:\PROGRAM FILES (X86)\WINDOWS KITS\10\INCLUDE\10.0.18362.0\UM\OBJIDL.H
C:\PROGRAM FILES (X86)\WINDOWS KITS\10\INCLUDE\10.0.18362.0\UM\UNKNWN.H
C:\PROGRAM FILES (X86)\WINDOWS KITS\10\INCLUDE\10.0.18362.0\UM\PROPIDLBASE.H
C:\PROGRAM FILES (X86)\WINDOWS KITS\10\INCLUDE\10.0.18362.0\UM\OAIDL.H
C:\PROGRAM FILES (X86)\WINDOWS KITS\10\INCLUDE\10.0.18362.0\UM\URLMON.H
C:\PROGRAM FILES (X86)\WINDOWS KITS\10\INCLUDE\10.0.18362.0\UM\OLEIDL.H
C:\PROGRAM FILES (X86)\WINDOWS KITS\10\INCLUDE\10.0.18362.0\UM\SERVPROV.H
C:\PROGRAM FILES (X86)\WINDOWS KITS\10\INCLUDE\10.0.18362.0\UM\MSXML.H
C:\PROGRAM FILES (X86)\WINDOWS KITS\10\INCLUDE\10.0.18362.0\UM\PROPIDL.H
C:\PROGRAM FILES (X86)\WINDOWS KITS\10\INCLUDE\10.0.18362.0\UM\OLEAUTO.H
C:\PROGRAM FILES (X86)\WINDOWS KITS\10\INCLUDE\10.0.18362.0\UM\COMMDLG.H
C:\PROGRAM FILES (X86)\WINDOWS KITS\10\INCLUDE\10.0.18362.0\SHARED\STRALIGN.H
C:\PROGRAM FILES (X86)\WINDOWS KITS\10\INCLUDE\10.0.18362.0\UM\WINSVC.H
C:\PROGRAM FILES (X86)\WINDOWS KITS\10\INCLUDE\10.0.18362.0\UM\MCX.H
C:\PROGRAM FILES (X86)\WINDOWS KITS\10\INCLUDE\10.0.18362.0\UM\IMM.H
C:\PROGRAM FILES (X86)\WINDOWS KITS\10\INCLUDE\10.0.18362.0\UM\IME_CMODES.H
D:\PROJETDEV\C++\LE PENDU\DICTIONNARY.H
D:\PROGRAMME\MICROSOFT VISUAL STUDIO\2019\COMMUNITY\VC\TOOLS\MSVC\14.25.28610\INCLUDE\STRING_VIEW
D:\PROGRAMME\MICROSOFT VISUAL STUDIO\2019\COMMUNITY\VC\TOOLS\MSVC\14.25.28610\INCLUDE\ARRAY
D:\PROGRAMME\MICROSOFT VISUAL STUDIO\2019\COMMUNITY\VC\TOOLS\MSVC\14.25.28610\INCLUDE\ALGORITHM
D:\PROGRAMME\MICROSOFT VISUAL STUDIO\2019\COMMUNITY\VC\TOOLS\MSVC\14.25.28610\INCLUDE\ITERATOR
D:\PROJETDEV\C++\LE PENDU\MENU.H
D:\PROJETDEV\C++\LE PENDU\GAME.H
D:\PROGRAMME\MICROSOFT VISUAL STUDIO\2019\COMMUNITY\VC\TOOLS\MSVC\14.25.28610\INCLUDE\STRING
D:\PROGRAMME\MICROSOFT VISUAL STUDIO\2019\COMMUNITY\VC\TOOLS\MSVC\14.25.28610\INCLUDE\CCTYPE
^D:\PROJETDEV\C++\LE PENDU\MENU.CPP
D:\PROGRAMME\MICROSOFT VISUAL STUDIO\2019\COMMUNITY\VC\TOOLS\MSVC\14.25.28610\INCLUDE\IOSTREAM
D:\PROGRAMME\MICROSOFT VISUAL STUDIO\2019\COMMUNITY\VC\TOOLS\MSVC\14.25.28610\INCLUDE\YVALS_CORE.H
D:\PROGRAMME\MICROSOFT VISUAL STUDIO\2019\COMMUNITY\VC\TOOLS\MSVC\14.25.28610\INCLUDE\VCRUNTIME.H
D:\PROGRAMME\MICROSOFT VISUAL STUDIO\2019\COMMUNITY\VC\TOOLS\MSVC\14.25.28610\INCLUDE\SAL.H
D:\PROGRAMME\MICROSOFT VISUAL STUDIO\2019\COMMUNITY\VC\TOOLS\MSVC\14.25.28610\INCLUDE\CONCURRENCYSAL.H
D:\PROGRAMME\MICROSOFT VISUAL STUDIO\2019\COMMUNITY\VC\TOOLS\MSVC\14.25.28610\INCLUDE\VADEFS.H
D:\PROGRAMME\MICROSOFT VISUAL STUDIO\2019\COMMUNITY\VC\TOOLS\MSVC\14.25.28610\INCLUDE\XKEYCHECK.H
D:\PROGRAMME\MICROSOFT VISUAL STUDIO\2019\COMMUNITY\VC\TOOLS\MSVC\14.25.28610\INCLUDE\ISTREAM
D:\PROGRAMME\MICROSOFT VISUAL STUDIO\2019\COMMUNITY\VC\TOOLS\MSVC\14.25.28610\INCLUDE\OSTREAM
D:\PROGRAMME\MICROSOFT VISUAL STUDIO\2019\COMMUNITY\VC\TOOLS\MSVC\14.25.28610\INCLUDE\IOS
D:\PROGRAMME\MICROSOFT VISUAL STUDIO\2019\COMMUNITY\VC\TOOLS\MSVC\14.25.28610\INCLUDE\XLOCNUM
D:\PROGRAMME\MICROSOFT VISUAL STUDIO\2019\COMMUNITY\VC\TOOLS\MSVC\14.25.28610\INCLUDE\CLIMITS
D:\PROGRAMME\MICROSOFT VISUAL STUDIO\2019\COMMUNITY\VC\TOOLS\MSVC\14.25.28610\INCLUDE\LIMITS.H
D:\PROGRAMME\MICROSOFT VISUAL STUDIO\2019\COMMUNITY\VC\TOOLS\MSVC\14.25.28610\INCLUDE\CMATH
D:\PROGRAMME\MICROSOFT VISUAL STUDIO\2019\COMMUNITY\VC\TOOLS\MSVC\14.25.28610\INCLUDE\YVALS.H
C:\PROGRAM FILES (X86)\WINDOWS KITS\10\INCLUDE\10.0.18362.0\UCRT\CRTDBG.H
C:\PROGRAM FILES (X86)\WINDOWS KITS\10\INCLUDE\10.0.18362.0\UCRT\CORECRT.H
D:\PROGRAMME\MICROSOFT VISUAL STUDIO\2019\COMMUNITY\VC\TOOLS\MSVC\14.25.28610\INCLUDE\VCRUNTIME_NEW_DEBUG.H
D:\PROGRAMME\MICROSOFT VISUAL STUDIO\2019\COMMUNITY\VC\TOOLS\MSVC\14.25.28610\INCLUDE\VCRUNTIME_NEW.H
D:\PROGRAMME\MICROSOFT VISUAL STUDIO\2019\COMMUNITY\VC\TOOLS\MSVC\14.25.28610\INCLUDE\CRTDEFS.H
D:\PROGRAMME\MICROSOFT VISUAL STUDIO\2019\COMMUNITY\VC\TOOLS\MSVC\14.25.28610\INCLUDE\USE_ANSI.H
D:\PROGRAMME\MICROSOFT VISUAL STUDIO\2019\COMMUNITY\VC\TOOLS\MSVC\14.25.28610\INCLUDE\CSTDLIB
C:\PROGRAM FILES (X86)\WINDOWS KITS\10\INCLUDE\10.0.18362.0\UCRT\MATH.H
C:\PROGRAM FILES (X86)\WINDOWS KITS\10\INCLUDE\10.0.18362.0\UCRT\CORECRT_MATH.H
C:\PROGRAM FILES (X86)\WINDOWS KITS\10\INCLUDE\10.0.18362.0\UCRT\STDLIB.H
C:\PROGRAM FILES (X86)\WINDOWS KITS\10\INCLUDE\10.0.18362.0\UCRT\CORECRT_MALLOC.H
C:\PROGRAM FILES (X86)\WINDOWS KITS\10\INCLUDE\10.0.18362.0\UCRT\CORECRT_SEARCH.H
C:\PROGRAM FILES (X86)\WINDOWS KITS\10\INCLUDE\10.0.18362.0\UCRT\STDDEF.H
C:\PROGRAM FILES (X86)\WINDOWS KITS\10\INCLUDE\10.0.18362.0\UCRT\CORECRT_WSTDLIB.H
D:\PROGRAMME\MICROSOFT VISUAL STUDIO\2019\COMMUNITY\VC\TOOLS\MSVC\14.25.28610\INCLUDE\XTR1COMMON
D:\PROGRAMME\MICROSOFT VISUAL STUDIO\2019\COMMUNITY\VC\TOOLS\MSVC\14.25.28610\INCLUDE\CSTDIO
C:\PROGRAM FILES (X86)\WINDOWS KITS\10\INCLUDE\10.0.18362.0\UCRT\STDIO.H
C:\PROGRAM FILES (X86)\WINDOWS KITS\10\INCLUDE\10.0.18362.0\UCRT\CORECRT_WSTDIO.H
C:\PROGRAM FILES (X86)\WINDOWS KITS\10\INCLUDE\10.0.18362.0\UCRT\CORECRT_STDIO_CONFIG.H
D:\PROGRAMME\MICROSOFT VISUAL STUDIO\2019\COMMUNITY\VC\TOOLS\MSVC\14.25.28610\INCLUDE\STREAMBUF
D:\PROGRAMME\MICROSOFT VISUAL STUDIO\2019\COMMUNITY\VC\TOOLS\MSVC\14.25.28610\INCLUDE\XIOSBASE
C:\PROGRAM FILES (X86)\WINDOWS KITS\10\INCLUDE\10.0.18362.0\UCRT\SHARE.H
C:\PROGRAM FILES (X86)\WINDOWS KITS\10\INCLUDE\10.0.18362.0\UCRT\CORECRT_SHARE.H
D:\PROGRAMME\MICROSOFT VISUAL STUDIO\2019\COMMUNITY\VC\TOOLS\MSVC\14.25.28610\INCLUDE\SYSTEM_ERROR
D:\PROGRAMME\MICROSOFT VISUAL STUDIO\2019\COMMUNITY\VC\TOOLS\MSVC\14.25.28610\INCLUDE\CERRNO
C:\PROGRAM FILES (X86)\WINDOWS KITS\10\INCLUDE\10.0.18362.0\UCRT\ERRNO.H
D:\PROGRAMME\MICROSOFT VISUAL STUDIO\2019\COMMUNITY\VC\TOOLS\MSVC\14.25.28610\INCLUDE\STDEXCEPT
D:\PROGRAMME\MICROSOFT VISUAL STUDIO\2019\COMMUNITY\VC\TOOLS\MSVC\14.25.28610\INCLUDE\EXCEPTION
D:\PROGRAMME\MICROSOFT VISUAL STUDIO\2019\COMMUNITY\VC\TOOLS\MSVC\14.25.28610\INCLUDE\TYPE_TRAITS
D:\PROGRAMME\MICROSOFT VISUAL STUDIO\2019\COMMUNITY\VC\TOOLS\MSVC\14.25.28610\INCLUDE\XSTDDEF
D:\PROGRAMME\MICROSOFT VISUAL STUDIO\2019\COMMUNITY\VC\TOOLS\MSVC\14.25.28610\INCLUDE\CSTDDEF
D:\PROGRAMME\MICROSOFT VISUAL STUDIO\2019\COMMUNITY\VC\TOOLS\MSVC\14.25.28610\INCLUDE\INITIALIZER_LIST
C:\PROGRAM FILES (X86)\WINDOWS KITS\10\INCLUDE\10.0.18362.0\UCRT\MALLOC.H
D:\PROGRAMME\MICROSOFT VISUAL STUDIO\2019\COMMUNITY\VC\TOOLS\MSVC\14.25.28610\INCLUDE\VCRUNTIME_EXCEPTION.H
D:\PROGRAMME\MICROSOFT VISUAL STUDIO\2019\COMMUNITY\VC\TOOLS\MSVC\14.25.28610\INCLUDE\EH.H
C:\PROGRAM FILES (X86)\WINDOWS KITS\10\INCLUDE\10.0.18362.0\UCRT\CORECRT_TERMINATE.H
D:\PROGRAMME\MICROSOFT VISUAL STUDIO\2019\COMMUNITY\VC\TOOLS\MSVC\14.25.28610\INCLUDE\XSTRING
D:\PROGRAMME\MICROSOFT VISUAL STUDIO\2019\COMMUNITY\VC\TOOLS\MSVC\14.25.28610\INCLUDE\IOSFWD
D:\PROGRAMME\MICROSOFT VISUAL STUDIO\2019\COMMUNITY\VC\TOOLS\MSVC\14.25.28610\INCLUDE\CSTRING
C:\PROGRAM FILES (X86)\WINDOWS KITS\10\INCLUDE\10.0.18362.0\UCRT\STRING.H
C:\PROGRAM FILES (X86)\WINDOWS KITS\10\INCLUDE\10.0.18362.0\UCRT\CORECRT_MEMORY.H
C:\PROGRAM FILES (X86)\WINDOWS KITS\10\INCLUDE\10.0.18362.0\UCRT\CORECRT_MEMCPY_S.H
D:\PROGRAMME\MICROSOFT VISUAL STUDIO\2019\COMMUNITY\VC\TOOLS\MSVC\14.25.28610\INCLUDE\VCRUNTIME_STRING.H
C:\PROGRAM FILES (X86)\WINDOWS KITS\10\INCLUDE\10.0.18362.0\UCRT\CORECRT_WSTRING.H
D:\PROGRAMME\MICROSOFT VISUAL STUDIO\2019\COMMUNITY\VC\TOOLS\MSVC\14.25.28610\INCLUDE\CWCHAR
C:\PROGRAM FILES (X86)\WINDOWS KITS\10\INCLUDE\10.0.18362.0\UCRT\WCHAR.H
C:\PROGRAM FILES (X86)\WINDOWS KITS\10\INCLUDE\10.0.18362.0\UCRT\CORECRT_WCONIO.H
C:\PROGRAM FILES (X86)\WINDOWS KITS\10\INCLUDE\10.0.18362.0\UCRT\CORECRT_WCTYPE.H
C:\PROGRAM FILES (X86)\WINDOWS KITS\10\INCLUDE\10.0.18362.0\UCRT\CORECRT_WDIRECT.H
C:\PROGRAM FILES (X86)\WINDOWS KITS\10\INCLUDE\10.0.18362.0\UCRT\CORECRT_WIO.H
C:\PROGRAM FILES (X86)\WINDOWS KITS\10\INCLUDE\10.0.18362.0\UCRT\CORECRT_WPROCESS.H
C:\PROGRAM FILES (X86)\WINDOWS KITS\10\INCLUDE\10.0.18362.0\UCRT\CORECRT_WTIME.H
C:\PROGRAM FILES (X86)\WINDOWS KITS\10\INCLUDE\10.0.18362.0\UCRT\SYS\STAT.H
C:\PROGRAM FILES (X86)\WINDOWS KITS\10\INCLUDE\10.0.18362.0\UCRT\SYS\TYPES.H
D:\PROGRAMME\MICROSOFT VISUAL STUDIO\2019\COMMUNITY\VC\TOOLS\MSVC\14.25.28610\INCLUDE\XMEMORY
D:\PROGRAMME\MICROSOFT VISUAL STUDIO\2019\COMMUNITY\VC\TOOLS\MSVC\14.25.28610\INCLUDE\CSTDINT
D:\PROGRAMME\MICROSOFT VISUAL STUDIO\2019\COMMUNITY\VC\TOOLS\MSVC\14.25.28610\INCLUDE\STDINT.H
D:\PROGRAMME\MICROSOFT VISUAL STUDIO\2019\COMMUNITY\VC\TOOLS\MSVC\14.25.28610\INCLUDE\LIMITS
D:\PROGRAMME\MICROSOFT VISUAL STUDIO\2019\COMMUNITY\VC\TOOLS\MSVC\14.25.28610\INCLUDE\CFLOAT
C:\PROGRAM FILES (X86)\WINDOWS KITS\10\INCLUDE\10.0.18362.0\UCRT\FLOAT.H
D:\PROGRAMME\MICROSOFT VISUAL STUDIO\2019\COMMUNITY\VC\TOOLS\MSVC\14.25.28610\INCLUDE\NEW
D:\PROGRAMME\MICROSOFT VISUAL STUDIO\2019\COMMUNITY\VC\TOOLS\MSVC\14.25.28610\INCLUDE\XATOMIC.H
D:\PROGRAMME\MICROSOFT VISUAL STUDIO\2019\COMMUNITY\VC\TOOLS\MSVC\14.25.28610\INCLUDE\INTRIN0.H
D:\PROGRAMME\MICROSOFT VISUAL STUDIO\2019\COMMUNITY\VC\TOOLS\MSVC\14.25.28610\INCLUDE\XUTILITY
D:\PROGRAMME\MICROSOFT VISUAL STUDIO\2019\COMMUNITY\VC\TOOLS\MSVC\14.25.28610\INCLUDE\UTILITY
D:\PROGRAMME\MICROSOFT VISUAL STUDIO\2019\COMMUNITY\VC\TOOLS\MSVC\14.25.28610\INCLUDE\XPOLYMORPHIC_ALLOCATOR.H
D:\PROGRAMME\MICROSOFT VISUAL STUDIO\2019\COMMUNITY\VC\TOOLS\MSVC\14.25.28610\INCLUDE\TUPLE
D:\PROGRAMME\MICROSOFT VISUAL STUDIO\2019\COMMUNITY\VC\TOOLS\MSVC\14.25.28610\INCLUDE\XCALL_ONCE.H
D:\PROGRAMME\MICROSOFT VISUAL STUDIO\2019\COMMUNITY\VC\TOOLS\MSVC\14.25.28610\INCLUDE\XERRC.H
D:\PROGRAMME\MICROSOFT VISUAL STUDIO\2019\COMMUNITY\VC\TOOLS\MSVC\14.25.28610\INCLUDE\XLOCALE
D:\PROGRAMME\MICROSOFT VISUAL STUDIO\2019\COMMUNITY\VC\TOOLS\MSVC\14.25.28610\INCLUDE\MEMORY
D:\PROGRAMME\MICROSOFT VISUAL STUDIO\2019\COMMUNITY\VC\TOOLS\MSVC\14.25.28610\INCLUDE\TYPEINFO
D:\PROGRAMME\MICROSOFT VISUAL STUDIO\2019\COMMUNITY\VC\TOOLS\MSVC\14.25.28610\INCLUDE\VCRUNTIME_TYPEINFO.H
D:\PROGRAMME\MICROSOFT VISUAL STUDIO\2019\COMMUNITY\VC\TOOLS\MSVC\14.25.28610\INCLUDE\XFACET
D:\PROGRAMME\MICROSOFT VISUAL STUDIO\2019\COMMUNITY\VC\TOOLS\MSVC\14.25.28610\INCLUDE\XLOCINFO
D:\PROGRAMME\MICROSOFT VISUAL STUDIO\2019\COMMUNITY\VC\TOOLS\MSVC\14.25.28610\INCLUDE\XLOCINFO.H
C:\PROGRAM FILES (X86)\WINDOWS KITS\10\INCLUDE\10.0.18362.0\UCRT\CTYPE.H
C:\PROGRAM FILES (X86)\WINDOWS KITS\10\INCLUDE\10.0.18362.0\UCRT\LOCALE.H
D:\PROGRAMME\MICROSOFT VISUAL STUDIO\2019\COMMUNITY\VC\TOOLS\MSVC\14.25.28610\INCLUDE\STRING
D:\PROGRAMME\MICROSOFT VISUAL STUDIO\2019\COMMUNITY\VC\TOOLS\MSVC\14.25.28610\INCLUDE\CCTYPE
D:\PROJETDEV\C++\LE PENDU\MENU.H
D:\PROJETDEV\C++\LE PENDU\GAME.H
