^D:\PROJETDEV\C++\LE PENDU\RELEASE\DRAWING.OBJ|D:\PROJETDEV\C++\LE PENDU\RELEASE\GAME.OBJ|D:\PROJETDEV\C++\LE PENDU\RELEASE\LE PENDU.OBJ|D:\PROJETDEV\C++\LE PENDU\RELEASE\MENU.OBJ
/OUT:"D:\PROJETDEV\C++\LE PENDU\RELEASE\LE PENDU.EXE" /INCREMENTAL:NO /NOLOGO KERNEL32.LIB USER32.LIB GDI32.LIB WINSPOOL.LIB COMDLG32.LIB ADVAPI32.LIB SHELL32.LIB OLE32.LIB OLEAUT32.LIB UUID.LIB ODBC32.LIB ODBCCP32.LIB /MANIFEST /MANIFESTUAC:"level='asInvoker' uiAccess='false'" /manifest:embed /DEBUG /PDB:"D:\PROJETDEV\C++\LE PENDU\RELEASE\LE PENDU.PDB" /SUBSYSTEM:CONSOLE /OPT:REF /OPT:ICF /LTCG:incremental /TLBID:1 /DYNAMICBASE /NXCOMPAT /IMPLIB:"D:\PROJETDEV\C++\LE PENDU\RELEASE\LE PENDU.LIB" /MACHINE:X86 /SAFESEH RELEASE\DRAWING.OBJ
RELEASE\GAME.OBJ
"RELEASE\LE PENDU.OBJ"
RELEASE\MENU.OBJ
